cache.vcd
$date
	Tue Dec  9 14:01:05 2025
$end
$version
	Icarus Verilog
$end
$timescale
	1s
$end
$scope module cache_tb $end
$var wire 4 ! mem_mask [3:0] $end
$var wire 32 " res_rdata [31:0] $end
$var wire 1 # mem_wen $end
$var wire 32 $ mem_wdata [31:0] $end
$var wire 1 % mem_valid $end
$var wire 1 & mem_ren $end
$var wire 1 ' mem_ready $end
$var wire 32 ( mem_rdata [31:0] $end
$var wire 32 ) mem_oaddr [31:0] $end
$var wire 32 * mem_addr [31:0] $end
$var wire 1 + busy $end
$var parameter 32 , D $end
$var parameter 32 - DEPTH $end
$var parameter 32 . INTERVAL $end
$var parameter 32 / LATENCY $end
$var parameter 32 0 O $end
$var parameter 32 1 S $end
$var parameter 64 2 SIZE $end
$var parameter 34 3 T $end
$var parameter 32 4 W $end
$var reg 1 5 clk $end
$var reg 32 6 expanded_mask [31:0] $end
$var reg 5 7 index [4:0] $end
$var reg 4 8 offset [3:0] $end
$var reg 32 9 req_addr [31:0] $end
$var reg 4 : req_mask [3:0] $end
$var reg 1 ; req_ren $end
$var reg 32 < req_wdata [31:0] $end
$var reg 1 = req_wen $end
$var reg 1 > rst $end
$var reg 24 ? tag [23:0] $end
$var integer 32 @ i [31:0] $end
$scope module dut $end
$var wire 1 A cache_hit $end
$var wire 1 B hit0 $end
$var wire 1 C hit1 $end
$var wire 1 5 i_clk $end
$var wire 32 D i_req_addr [31:0] $end
$var wire 4 E i_req_mask [3:0] $end
$var wire 1 ; i_req_ren $end
$var wire 32 F i_req_wdata [31:0] $end
$var wire 1 = i_req_wen $end
$var wire 1 > i_rst $end
$var wire 1 G mem_request_fire $end
$var wire 1 + o_busy $end
$var wire 32 H o_mem_addr [31:0] $end
$var wire 1 & o_mem_ren $end
$var wire 32 I o_mem_wdata [31:0] $end
$var wire 1 # o_mem_wen $end
$var wire 32 J o_res_rdata [31:0] $end
$var wire 1 K way_select $end
$var wire 2 L req_word_offset [1:0] $end
$var wire 23 M req_tag [22:0] $end
$var wire 4 N req_offset [3:0] $end
$var wire 5 O req_index [4:0] $end
$var wire 1 % i_mem_valid $end
$var wire 1 ' i_mem_ready $end
$var wire 32 P i_mem_rdata [31:0] $end
$var parameter 32 Q D $end
$var parameter 32 R DEPTH $end
$var parameter 32 S O $end
$var parameter 32 T S $end
$var parameter 2 U STATE_IDLE $end
$var parameter 2 V STATE_READ_LINE $end
$var parameter 2 W STATE_WRITE_MEM $end
$var parameter 34 X T $end
$var parameter 32 Y W $end
$var reg 1 Z busy_reg $end
$var reg 32 [ line_base_addr [31:0] $end
$var reg 32 \ mem_addr_reg [31:0] $end
$var reg 1 ] mem_ren_reg $end
$var reg 32 ^ mem_wdata_reg [31:0] $end
$var reg 1 _ mem_wen_reg $end
$var reg 3 ` next_req_index [2:0] $end
$var reg 2 a next_state [1:0] $end
$var reg 32 b rdata_reg [31:0] $end
$var reg 2 c state [1:0] $end
$var reg 2 d word_counter [1:0] $end
$var reg 3 e words_requested [2:0] $end
$var reg 1 f write_way $end
$var integer 32 g i [31:0] $end
$upscope $end
$scope module mem $end
$var wire 32 h i_addr [31:0] $end
$var wire 1 5 i_clk $end
$var wire 4 i i_mask [3:0] $end
$var wire 1 & i_ren $end
$var wire 1 > i_rst $end
$var wire 32 j i_wdata [31:0] $end
$var wire 1 # i_wen $end
$var wire 4 k mask [3:0] $end
$var wire 32 l o_addr [31:0] $end
$var wire 32 m o_rdata [31:0] $end
$var wire 1 ' o_ready $end
$var wire 1 % o_valid $end
$var wire 1 n o_wdone $end
$var wire 32 o raddr [31:0] $end
$var wire 1 p ready $end
$var wire 1 q ren $end
$var wire 32 r res_addr [31:0] $end
$var wire 1 s res_valid $end
$var wire 1 t res_wdone $end
$var wire 32 u waddr [31:0] $end
$var wire 32 v wdata [31:0] $end
$var wire 1 w wen $end
$var wire 32 x res_rdata [31:0] $end
$var parameter 32 y INTERVAL $end
$var parameter 32 z LATENCY $end
$var parameter 64 { SIZE $end
$var reg 1 | interval_counter $end
$scope begin genblk1[1] $end
$var parameter 2 } i $end
$upscope $end
$scope begin genblk1[2] $end
$var parameter 3 ~ i $end
$upscope $end
$scope begin genblk1[3] $end
$var parameter 3 !" i $end
$upscope $end
$upscope $end
$scope task reset_sequence $end
$upscope $end
$scope task send_read $end
$var reg 5 "" index [4:0] $end
$var reg 4 #" mask [3:0] $end
$var reg 4 $" offset [3:0] $end
$var reg 23 %" tag [22:0] $end
$upscope $end
$scope task send_write $end
$var reg 32 &" data [31:0] $end
$var reg 5 '" index [4:0] $end
$var reg 4 (" mask [3:0] $end
$var reg 4 )" offset [3:0] $end
$var reg 23 *" tag [22:0] $end
$upscope $end
$upscope $end
$enddefinitions $end
$comment Show the parameter values. $end
$dumpall
b11 !"
b10 ~
b1 }
b100000000000000 {
b100 z
b10 y
b10 Y
b10111 X
b10 W
b1 V
b0 U
b101 T
b100 S
b100000 R
b100 Q
b10 4
b10111 3
b100000000000000 2
b101 1
b100 0
b100 /
b10 .
b100000 -
b100 ,
$end
#0
$dumpvars
bx *"
bx )"
bx ("
bx '"
bx &"
bx %"
bx $"
bx #"
bx ""
x|
bx x
xw
bx v
bx u
xt
xs
bx r
xq
xp
bx o
xn
bx m
bx l
bx k
bx j
b1111 i
bx h
bx g
xf
bx e
bx d
bx c
bx b
bx a
bx `
0_
bx ^
0]
bx \
bx [
xZ
bx P
bx O
bx N
bx M
bx L
xK
bx J
bx I
bx H
0G
bx F
bx E
bx D
xC
xB
xA
bx @
bx ?
0>
x=
bx <
x;
bx :
bx 9
bx 8
bx 7
bx 6
15
x+
bx *
bx )
bx (
x'
0&
x%
bx $
0#
bx "
b1111 !
$end
#5
0'
0p
1>
05
#10
0+
0Z
b0 a
b0 $
b0 I
b0 j
b0 ^
b0 *
b0 H
b0 h
b0 \
b0 e
b0 [
b0 d
b0 c
0|
0%
0s
0q
0n
0t
0w
b100000 g
15
#15
05
#20
b100000 g
15
#25
05
#30
b100000 g
15
#35
05
#40
b100000 g
15
#45
1+
1Z
b1 a
0A
0B
0K
0C
0f
1'
1p
b0 M
b0 O
b0 N
b0 L
b1111 #"
b0 $"
b0 ""
b0 %"
b0 @
b0 8
b0 7
b0 ?
bx <
bx F
b1111 :
b1111 E
0=
1;
b0 9
b0 D
0>
05
#50
1G
1+
1Z
1&
1]
b1 c
b0 `
15
#55
b11111111111111111111111111111111 6
1+
1Z
0;
05
#60
0G
0'
0p
b1111 k
1|
b1 e
b100 *
b100 H
b100 h
b100 \
1&
1]
b1 `
15
#65
05
#70
1'
1p
0&
0]
0|
b0 v
b0 u
15
#75
05
#80
1G
b0 )
b0 l
b0 r
b100000000000010010011 (
b100000000000010010011 P
b100000000000010010011 m
b100000000000010010011 x
b0 o
1&
1]
15
#85
05
#90
0G
0'
0p
b1000 *
b1000 H
b1000 h
b1000 \
1&
1]
b10 e
1|
1%
1s
1q
b100 u
b10 `
15
#95
05
#100
1'
1p
0%
0s
0q
b100 )
b100 l
b100 r
b1000000000000100010011 (
b1000000000000100010011 P
b1000000000000100010011 m
b1000000000000100010011 x
b100 o
0|
b1 d
0&
0]
15
#105
05
#110
1G
1&
1]
15
#115
05
#120
0G
0'
0p
b1000 u
1%
1s
1q
1|
b11 e
b1100 *
b1100 H
b1100 h
b1100 \
1&
1]
b11 `
15
#125
05
#130
1'
1p
0&
0]
b10 d
0|
0%
0s
0q
b1000 )
b1000 l
b1000 r
b11111111110100000000000110010011 (
b11111111110100000000000110010011 P
b11111111110100000000000110010011 m
b11111111110100000000000110010011 x
b1000 o
15
#135
05
#140
1G
1&
1]
15
#145
05
#150
0G
0'
0p
0&
0]
b100 e
1|
1%
1s
1q
b1100 u
b100 `
15
#155
05
#160
1'
1p
0%
0s
0q
b1100 )
b1100 l
b1100 r
b10000000000001000010011 (
b10000000000001000010011 P
b10000000000001000010011 m
b10000000000001000010011 x
b1100 o
0|
b11 d
15
#165
05
#170
15
#175
05
#180
b100000000000010010011 "
b100000000000010010011 J
b100000000000010010011 b
b0 a
1%
1s
1q
15
#185
05
#190
1A
1B
1f
0+
0Z
b100000000000010010011 "
b100000000000010010011 J
b100000000000010010011 b
b0 d
b0 c
0%
0s
0q
15
#195
1;
05
#200
b0 e
15
#205
b11 :
b11 E
b11 #"
1;
05
#210
b0 `
15
#215
b11111111110100000000000110010011 "
b11111111110100000000000110010011 J
b11111111110100000000000110010011 b
b1010 N
b10 L
b1111 :
b1111 E
b1010 9
b1010 D
b1111 #"
b1010 $"
b1010 8
b1111111111111111 6
1;
05
#220
15
#225
1+
1Z
b10 a
0A
0B
bx "
bx J
bx b
b1 M
b0 N
b0 L
b11011110101011011011111011101111 <
b11011110101011011011111011101111 F
1=
b1000000000 9
b1000000000 D
b11011110101011011011111011101111 &"
b1111 ("
b0 )"
b0 '"
b1 *"
b0 8
b1 ?
b11111111111111111111111111111111 6
0;
05
#230
1+
1Z
b1 a
b11011110101011011011111011101111 $
b11011110101011011011111011101111 I
b11011110101011011011111011101111 j
b11011110101011011011111011101111 ^
b1000000000 *
b1000000000 H
b1000000000 h
b1000000000 \
1#
1_
b1000000000 [
b10 c
15
#235
1+
1Z
b1 a
0=
05
#240
0'
0p
1+
1Z
0G
1|
b1 c
1&
1]
0#
0_
15
#245
05
#250
1'
1p
0&
0]
0|
15
#255
05
#260
1G
b11011110101011011011111011101111 v
1n
1t
1w
b1000000000 u
1&
1]
15
#265
05
#270
0G
0'
0p
b1000000100 *
b1000000100 H
b1000000100 h
b1000000100 \
1&
1]
b1 e
1|
b1000000000 )
b1000000000 l
b1000000000 r
b11011110101011011011111011101111 (
b11011110101011011011111011101111 P
b11011110101011011011111011101111 m
b11011110101011011011111011101111 x
b1000000000 o
0n
0t
0w
b1 `
15
#275
05
#280
1'
1p
0|
0&
0]
15
#285
05
#290
1G
1&
1]
15
#295
05
#300
0G
0'
0p
b1000000100 u
1%
1s
1q
1|
b10 e
b1000001000 *
b1000001000 H
b1000001000 h
b1000001000 \
1&
1]
b10 `
15
#305
05
#310
1'
1p
0&
0]
b1 d
0|
0%
0s
0q
b1000000100 )
b1000000100 l
b1000000100 r
b0 (
b0 P
b0 m
b0 x
b1000000100 o
15
#315
05
#320
1G
1&
1]
15
#325
05
#330
0G
0'
0p
b1000001100 *
b1000001100 H
b1000001100 h
b1000001100 \
1&
1]
b11 e
1|
1%
1s
1q
b1000001000 u
b11 `
15
#335
05
#340
1'
1p
0%
0s
0q
b1000001000 )
b1000001000 l
b1000001000 r
b1000001000 o
0|
b10 d
0&
0]
15
#345
05
#350
1G
1&
1]
15
#355
05
#360
0'
0p
0G
b1000001100 u
1%
1s
1q
1|
b100 e
0&
0]
b100 `
15
#365
05
#370
1'
1p
b11 d
0|
0%
0s
0q
b1000001100 )
b1000001100 l
b1000001100 r
b1000001100 o
15
#375
05
#380
15
#385
05
#390
b11011110101011011011111011101111 "
b11011110101011011011111011101111 J
b11011110101011011011111011101111 b
b0 a
1%
1s
1q
15
#395
05
#400
1A
1K
1C
0+
0Z
0f
b11011110101011011011111011101111 "
b11011110101011011011111011101111 J
b11011110101011011011111011101111 b
0%
0s
0q
b0 c
b0 d
15
#405
b10111110111011111100101011111110 <
b10111110111011111100101011111110 F
1=
b10111110111011111100101011111110 &"
05
#410
b10111110111011111100101011111110 "
b10111110111011111100101011111110 J
b10111110111011111100101011111110 b
b10111110111011111100101011111110 $
b10111110111011111100101011111110 I
b10111110111011111100101011111110 j
b10111110111011111100101011111110 ^
b1000000000 *
b1000000000 H
b1000000000 h
b1000000000 \
1#
1_
b0 e
15
#415
1;
bx <
bx F
b0 $"
b1 %"
0=
05
#420
0'
0p
1|
0#
0_
b0 `
15
#425
bx "
bx J
bx b
1+
1Z
b10 a
0A
0K
0C
b10 M
b11001010111111101011111011101111 <
b11001010111111101011111011101111 F
1=
b10000000000 9
b10000000000 D
b11001010111111101011111011101111 &"
b10 *"
b10 ?
0;
05
#430
1+
1Z
b1 a
1'
1p
b10000000000 [
b10 c
0|
15
#435
1+
1Z
b1 a
0=
05
#440
1+
1Z
1G
b10111110111011111100101011111110 v
1n
1t
1w
b1000000000 u
b1 c
b10000000000 *
b10000000000 H
b10000000000 h
b10000000000 \
1&
1]
15
#445
05
#450
0G
0'
0p
b10000000100 *
b10000000100 H
b10000000100 h
b10000000100 \
1&
1]
b1 e
1|
b1000000000 )
b1000000000 l
b1000000000 r
b10111110111011111100101011111110 (
b10111110111011111100101011111110 P
b10111110111011111100101011111110 m
b10111110111011111100101011111110 x
b1000000000 o
0n
0t
0w
b1 `
15
#455
05
#460
1'
1p
0|
0&
0]
15
#465
05
#470
1G
1&
1]
b10000000000 u
15
#475
05
#480
0G
0'
0p
b10000000100 u
1%
1s
1q
b10000000000 )
b10000000000 l
b10000000000 r
bx (
bx P
bx m
bx x
b10000000000 o
1|
b10 e
b10000001000 *
b10000001000 H
b10000001000 h
b10000001000 \
1&
1]
b10 `
15
#485
05
#490
1'
1p
0&
0]
b1 d
0|
0%
0s
0q
b10000000100 )
b10000000100 l
b10000000100 r
b10000000100 o
15
#495
05
#500
1G
1&
1]
15
#505
05
#510
0G
0'
0p
b10000001100 *
b10000001100 H
b10000001100 h
b10000001100 \
1&
1]
b11 e
1|
1%
1s
1q
b10000001000 u
b11 `
15
#515
05
#520
1'
1p
0%
0s
0q
b10000001000 )
b10000001000 l
b10000001000 r
b10000001000 o
0|
b10 d
0&
0]
15
#525
05
#530
1G
1&
1]
15
#535
05
#540
0'
0p
0G
b10000001100 u
1%
1s
1q
1|
b100 e
0&
0]
b100 `
15
#545
05
#550
1'
1p
b11 d
0|
0%
0s
0q
b10000001100 )
b10000001100 l
b10000001100 r
b10000001100 o
15
#555
05
#560
15
#565
05
#570
b0 a
1%
1s
1q
15
#575
05
#580
1A
0+
0Z
1f
1B
0%
0s
0q
b0 c
b0 d
15
#585
b10111110111011111100101011111110 "
b10111110111011111100101011111110 J
b10111110111011111100101011111110 b
0B
1K
1C
b1 M
b10111110111011110000000000000000 <
b10111110111011110000000000000000 F
1=
b1100 :
b1100 E
b1000000000 9
b1000000000 D
b10111110111011110000000000000000 &"
b1100 ("
b1 *"
b1 ?
05
#590
0f
b10111110111011110000000000000000 $
b10111110111011110000000000000000 I
b10111110111011110000000000000000 j
b10111110111011110000000000000000 ^
b1000000000 *
b1000000000 H
b1000000000 h
b1000000000 \
1#
1_
b0 e
15
#595
1;
bx <
bx F
b1111 :
b1111 E
0=
05
#600
0'
0p
1|
0#
0_
b0 `
15
#605
b1100101011111110 <
b1100101011111110 F
1=
b11 :
b11 E
b1100101011111110 &"
b11 ("
0;
05
#610
1'
1p
0|
15
#615
1;
bx <
bx F
b1111 :
b1111 E
0=
05
#620
b10111110111011110000000000000000 v
1n
1t
1w
b1000000000 u
15
#625
1+
1Z
b1 a
0A
0B
0K
0C
bx "
bx J
bx b
b0 M
b1 O
b10000 9
b10000 D
b1 ""
b0 %"
b1 7
b0 ?
b1 @
1;
05
#630
1G
1+
1Z
1&
1]
b10000 *
b10000 H
b10000 h
b10000 \
b10000 [
b1 c
b1000000000 )
b1000000000 l
b1000000000 r
b10111110111011110000000000000000 (
b10111110111011110000000000000000 P
b10111110111011110000000000000000 m
b10111110111011110000000000000000 x
b1000000000 o
0n
0t
0w
15
#635
1+
1Z
0;
05
#640
0G
0'
0p
1|
b1 e
b10100 *
b10100 H
b10100 h
b10100 \
1&
1]
b1 `
15
#645
05
#650
1'
1p
0&
0]
0|
15
#655
05
#660
1G
b10000 u
1&
1]
15
#665
05
#670
0G
0'
0p
b11000 *
b11000 H
b11000 h
b11000 \
1&
1]
b10 e
1|
1%
1s
1q
b10000 )
b10000 l
b10000 r
b10000001010110111 (
b10000001010110111 P
b10000001010110111 m
b10000001010110111 x
b10000 o
b10100 u
b10 `
15
#675
05
#680
1'
1p
0%
0s
0q
b10100 )
b10100 l
b10100 r
b1001100010111 (
b1001100010111 P
b1001100010111 m
b1001100010111 x
b10100 o
0|
b1 d
0&
0]
15
#685
05
#690
1G
1&
1]
15
#695
05
#700
0G
0'
0p
b11000 u
1%
1s
1q
1|
b11 e
b11100 *
b11100 H
b11100 h
b11100 \
1&
1]
b11 `
15
#705
05
#710
1'
1p
0&
0]
b10 d
0|
0%
0s
0q
b11000 )
b11000 l
b11000 r
b11100000000001110010011 (
b11100000000001110010011 P
b11100000000001110010011 m
b11100000000001110010011 x
b11000 o
15
#715
05
#720
1G
1&
1]
15
#725
05
#730
0G
0'
0p
0&
0]
b100 e
1|
1%
1s
1q
b11100 u
b100 `
15
#735
05
#740
1'
1p
0%
0s
0q
b11100 )
b11100 l
b11100 r
b1000001000010000110011 (
b1000001000010000110011 P
b1000001000010000110011 m
b1000001000010000110011 x
b11100 o
0|
b11 d
15
#745
05
#750
15
#755
05
#760
b10000001010110111 "
b10000001010110111 J
b10000001010110111 b
b0 a
1%
1s
1q
15
#765
05
#770
1A
1B
1f
0+
0Z
b10000001010110111 "
b10000001010110111 J
b10000001010110111 b
b0 d
b0 c
0%
0s
0q
15
#775
1;
05
#780
b0 e
15
#785
b11 :
b11 E
b11 #"
1;
05
#790
b0 `
15
#795
b11100000000001110010011 "
b11100000000001110010011 J
b11100000000001110010011 b
b1010 N
b10 L
b1111 :
b1111 E
b11010 9
b11010 D
b1111 #"
b1010 $"
b1010 8
b1111111111111111 6
1;
05
#800
15
#805
1+
1Z
b10 a
0A
0B
bx "
bx J
bx b
b1 M
b0 N
b0 L
b11011110101011011011111011101111 <
b11011110101011011011111011101111 F
1=
b1000010000 9
b1000010000 D
b11011110101011011011111011101111 &"
b1111 ("
b1 '"
b0 8
b1 ?
b11111111111111111111111111111111 6
0;
05
#810
1+
1Z
b1 a
b11011110101011011011111011101111 $
b11011110101011011011111011101111 I
b11011110101011011011111011101111 j
b11011110101011011011111011101111 ^
b1000010000 *
b1000010000 H
b1000010000 h
b1000010000 \
1#
1_
b1000010000 [
b10 c
15
#815
1+
1Z
b1 a
0=
05
#820
0'
0p
1+
1Z
0G
1|
b1 c
1&
1]
0#
0_
15
#825
05
#830
1'
1p
0&
0]
0|
15
#835
05
#840
1G
b11011110101011011011111011101111 v
1n
1t
1w
b1000010000 u
1&
1]
15
#845
05
#850
0G
0'
0p
b1000010100 *
b1000010100 H
b1000010100 h
b1000010100 \
1&
1]
b1 e
1|
b1000010000 )
b1000010000 l
b1000010000 r
b11011110101011011011111011101111 (
b11011110101011011011111011101111 P
b11011110101011011011111011101111 m
b11011110101011011011111011101111 x
b1000010000 o
0n
0t
0w
b1 `
15
#855
05
#860
1'
1p
0|
0&
0]
15
#865
05
#870
1G
1&
1]
15
#875
05
#880
0G
0'
0p
b1000010100 u
1%
1s
1q
1|
b10 e
b1000011000 *
b1000011000 H
b1000011000 h
b1000011000 \
1&
1]
b10 `
15
#885
05
#890
1'
1p
0&
0]
b1 d
0|
0%
0s
0q
b1000010100 )
b1000010100 l
b1000010100 r
b0 (
b0 P
b0 m
b0 x
b1000010100 o
15
#895
05
#900
1G
1&
1]
15
#905
05
#910
0G
0'
0p
b1000011100 *
b1000011100 H
b1000011100 h
b1000011100 \
1&
1]
b11 e
1|
1%
1s
1q
b1000011000 u
b11 `
15
#915
05
#920
1'
1p
0%
0s
0q
b1000011000 )
b1000011000 l
b1000011000 r
b1000011000 o
0|
b10 d
0&
0]
15
#925
05
#930
1G
1&
1]
15
#935
05
#940
0'
0p
0G
b1000011100 u
1%
1s
1q
1|
b100 e
0&
0]
b100 `
15
#945
05
#950
1'
1p
b11 d
0|
0%
0s
0q
b1000011100 )
b1000011100 l
b1000011100 r
b1000011100 o
15
#955
05
#960
15
#965
05
#970
b11011110101011011011111011101111 "
b11011110101011011011111011101111 J
b11011110101011011011111011101111 b
b0 a
1%
1s
1q
15
#975
05
#980
1A
1K
1C
0+
0Z
0f
b11011110101011011011111011101111 "
b11011110101011011011111011101111 J
b11011110101011011011111011101111 b
0%
0s
0q
b0 c
b0 d
15
#985
b10111110111011111100101011111110 <
b10111110111011111100101011111110 F
1=
b10111110111011111100101011111110 &"
05
#990
b10111110111011111100101011111110 "
b10111110111011111100101011111110 J
b10111110111011111100101011111110 b
b10111110111011111100101011111110 $
b10111110111011111100101011111110 I
b10111110111011111100101011111110 j
b10111110111011111100101011111110 ^
b1000010000 *
b1000010000 H
b1000010000 h
b1000010000 \
1#
1_
b0 e
15
#995
1;
bx <
bx F
b0 $"
b1 %"
0=
05
#1000
0'
0p
1|
0#
0_
b0 `
15
#1005
bx "
bx J
bx b
1+
1Z
b10 a
0A
0K
0C
b10 M
b11001010111111101011111011101111 <
b11001010111111101011111011101111 F
1=
b10000010000 9
b10000010000 D
b11001010111111101011111011101111 &"
b10 *"
b10 ?
0;
05
#1010
1+
1Z
b1 a
1'
1p
b10000010000 [
b10 c
0|
15
#1015
1+
1Z
b1 a
0=
05
#1020
1+
1Z
1G
b10111110111011111100101011111110 v
1n
1t
1w
b1000010000 u
b1 c
b10000010000 *
b10000010000 H
b10000010000 h
b10000010000 \
1&
1]
15
#1025
05
#1030
0G
0'
0p
b10000010100 *
b10000010100 H
b10000010100 h
b10000010100 \
1&
1]
b1 e
1|
b1000010000 )
b1000010000 l
b1000010000 r
b10111110111011111100101011111110 (
b10111110111011111100101011111110 P
b10111110111011111100101011111110 m
b10111110111011111100101011111110 x
b1000010000 o
0n
0t
0w
b1 `
15
#1035
05
#1040
1'
1p
0|
0&
0]
15
#1045
05
#1050
1G
1&
1]
b10000010000 u
15
#1055
05
#1060
0G
0'
0p
b10000010100 u
1%
1s
1q
b10000010000 )
b10000010000 l
b10000010000 r
bx (
bx P
bx m
bx x
b10000010000 o
1|
b10 e
b10000011000 *
b10000011000 H
b10000011000 h
b10000011000 \
1&
1]
b10 `
15
#1065
05
#1070
1'
1p
0&
0]
b1 d
0|
0%
0s
0q
b10000010100 )
b10000010100 l
b10000010100 r
b10000010100 o
15
#1075
05
#1080
1G
1&
1]
15
#1085
05
#1090
0G
0'
0p
b10000011100 *
b10000011100 H
b10000011100 h
b10000011100 \
1&
1]
b11 e
1|
1%
1s
1q
b10000011000 u
b11 `
15
#1095
05
#1100
1'
1p
0%
0s
0q
b10000011000 )
b10000011000 l
b10000011000 r
b10000011000 o
0|
b10 d
0&
0]
15
#1105
05
#1110
1G
1&
1]
15
#1115
05
#1120
0'
0p
0G
b10000011100 u
1%
1s
1q
1|
b100 e
0&
0]
b100 `
15
#1125
05
#1130
1'
1p
b11 d
0|
0%
0s
0q
b10000011100 )
b10000011100 l
b10000011100 r
b10000011100 o
15
#1135
05
#1140
15
#1145
05
#1150
b0 a
1%
1s
1q
15
#1155
05
#1160
1A
0+
0Z
1f
1B
0%
0s
0q
b0 c
b0 d
15
#1165
b10111110111011111100101011111110 "
b10111110111011111100101011111110 J
b10111110111011111100101011111110 b
0B
1K
1C
b1 M
b10111110111011110000000000000000 <
b10111110111011110000000000000000 F
1=
b1100 :
b1100 E
b1000010000 9
b1000010000 D
b10111110111011110000000000000000 &"
b1100 ("
b1 *"
b1 ?
05
#1170
0f
b10111110111011110000000000000000 $
b10111110111011110000000000000000 I
b10111110111011110000000000000000 j
b10111110111011110000000000000000 ^
b1000010000 *
b1000010000 H
b1000010000 h
b1000010000 \
1#
1_
b0 e
15
#1175
1;
bx <
bx F
b1111 :
b1111 E
0=
05
#1180
0'
0p
1|
0#
0_
b0 `
15
#1185
b1100101011111110 <
b1100101011111110 F
1=
b11 :
b11 E
b1100101011111110 &"
b11 ("
0;
05
#1190
1'
1p
0|
15
#1195
1;
bx <
bx F
b1111 :
b1111 E
0=
05
#1200
b10111110111011110000000000000000 v
1n
1t
1w
b1000010000 u
15
#1205
1+
1Z
b1 a
0A
0B
0K
0C
bx "
bx J
bx b
b0 M
b10 O
b100000 9
b100000 D
b10 ""
b0 %"
b10 7
b0 ?
b10 @
1;
05
#1210
1G
1+
1Z
1&
1]
b100000 *
b100000 H
b100000 h
b100000 \
b100000 [
b1 c
b1000010000 )
b1000010000 l
b1000010000 r
b10111110111011110000000000000000 (
b10111110111011110000000000000000 P
b10111110111011110000000000000000 m
b10111110111011110000000000000000 x
b1000010000 o
0n
0t
0w
15
#1215
1+
1Z
0;
05
#1220
0G
0'
0p
1|
b1 e
b100100 *
b100100 H
b100100 h
b100100 \
1&
1]
b1 `
15
#1225
05
#1230
1'
1p
0&
0]
0|
15
#1235
05
#1240
1G
b100000 u
1&
1]
15
#1245
05
#1250
0G
0'
0p
b101000 *
b101000 H
b101000 h
b101000 \
1&
1]
b10 e
1|
1%
1s
1q
b100000 )
b100000 l
b100000 r
b1000000000100010000010010110011 (
b1000000000100010000010010110011 P
b1000000000100010000010010110011 m
b1000000000100010000010010110011 x
b100000 o
b100100 u
b10 `
15
#1255
05
#1260
1'
1p
0%
0s
0q
b100100 )
b100100 l
b100100 r
b1000001001010100110011 (
b1000001001010100110011 P
b1000001001010100110011 m
b1000001001010100110011 x
b100100 o
0|
b1 d
0&
0]
15
#1265
05
#1270
1G
1&
1]
15
#1275
05
#1280
0G
0'
0p
b101000 u
1%
1s
1q
1|
b11 e
b101100 *
b101100 H
b101100 h
b101100 \
1&
1]
b11 `
15
#1285
05
#1290
1'
1p
0&
0]
b10 d
0|
0%
0s
0q
b101000 )
b101000 l
b101000 r
b1000011010010110110011 (
b1000011010010110110011 P
b1000011010010110110011 m
b1000011010010110110011 x
b101000 o
15
#1295
05
#1300
1G
1&
1]
15
#1305
05
#1310
0G
0'
0p
0&
0]
b100 e
1|
1%
1s
1q
b101100 u
b100 `
15
#1315
05
#1320
1'
1p
0%
0s
0q
b101100 )
b101100 l
b101100 r
b1000100011011000110011 (
b1000100011011000110011 P
b1000100011011000110011 m
b1000100011011000110011 x
b101100 o
0|
b11 d
15
#1325
05
#1330
15
#1335
05
#1340
b1000000000100010000010010110011 "
b1000000000100010000010010110011 J
b1000000000100010000010010110011 b
b0 a
1%
1s
1q
15
#1345
05
#1350
1A
1B
1f
0+
0Z
b1000000000100010000010010110011 "
b1000000000100010000010010110011 J
b1000000000100010000010010110011 b
b0 d
b0 c
0%
0s
0q
15
#1355
1;
05
#1360
b0 e
15
#1365
b11 :
b11 E
b11 #"
1;
05
#1370
b0 `
15
#1375
b1000011010010110110011 "
b1000011010010110110011 J
b1000011010010110110011 b
b1010 N
b10 L
b1111 :
b1111 E
b101010 9
b101010 D
b1111 #"
b1010 $"
b1010 8
b1111111111111111 6
1;
05
#1380
15
#1385
1+
1Z
b10 a
0A
0B
bx "
bx J
bx b
b1 M
b0 N
b0 L
b11011110101011011011111011101111 <
b11011110101011011011111011101111 F
1=
b1000100000 9
b1000100000 D
b11011110101011011011111011101111 &"
b1111 ("
b10 '"
b0 8
b1 ?
b11111111111111111111111111111111 6
0;
05
#1390
1+
1Z
b1 a
b11011110101011011011111011101111 $
b11011110101011011011111011101111 I
b11011110101011011011111011101111 j
b11011110101011011011111011101111 ^
b1000100000 *
b1000100000 H
b1000100000 h
b1000100000 \
1#
1_
b1000100000 [
b10 c
15
#1395
1+
1Z
b1 a
0=
05
#1400
0'
0p
1+
1Z
0G
1|
b1 c
1&
1]
0#
0_
15
#1405
05
#1410
1'
1p
0&
0]
0|
15
#1415
05
#1420
1G
b11011110101011011011111011101111 v
1n
1t
1w
b1000100000 u
1&
1]
15
#1425
05
#1430
0G
0'
0p
b1000100100 *
b1000100100 H
b1000100100 h
b1000100100 \
1&
1]
b1 e
1|
b1000100000 )
b1000100000 l
b1000100000 r
b11011110101011011011111011101111 (
b11011110101011011011111011101111 P
b11011110101011011011111011101111 m
b11011110101011011011111011101111 x
b1000100000 o
0n
0t
0w
b1 `
15
#1435
05
#1440
1'
1p
0|
0&
0]
15
#1445
05
#1450
1G
1&
1]
15
#1455
05
#1460
0G
0'
0p
b1000100100 u
1%
1s
1q
1|
b10 e
b1000101000 *
b1000101000 H
b1000101000 h
b1000101000 \
1&
1]
b10 `
15
#1465
05
#1470
1'
1p
0&
0]
b1 d
0|
0%
0s
0q
b1000100100 )
b1000100100 l
b1000100100 r
b0 (
b0 P
b0 m
b0 x
b1000100100 o
15
#1475
05
#1480
1G
1&
1]
15
#1485
05
#1490
0G
0'
0p
b1000101100 *
b1000101100 H
b1000101100 h
b1000101100 \
1&
1]
b11 e
1|
1%
1s
1q
b1000101000 u
b11 `
15
#1495
05
#1500
1'
1p
0%
0s
0q
b1000101000 )
b1000101000 l
b1000101000 r
b1000101000 o
0|
b10 d
0&
0]
15
#1505
05
#1510
1G
1&
1]
15
#1515
05
#1520
0'
0p
0G
b1000101100 u
1%
1s
1q
1|
b100 e
0&
0]
b100 `
15
#1525
05
#1530
1'
1p
b11 d
0|
0%
0s
0q
b1000101100 )
b1000101100 l
b1000101100 r
b1000101100 o
15
#1535
05
#1540
15
#1545
05
#1550
b11011110101011011011111011101111 "
b11011110101011011011111011101111 J
b11011110101011011011111011101111 b
b0 a
1%
1s
1q
15
#1555
05
#1560
1A
1K
1C
0+
0Z
0f
b11011110101011011011111011101111 "
b11011110101011011011111011101111 J
b11011110101011011011111011101111 b
0%
0s
0q
b0 c
b0 d
15
#1565
b10111110111011111100101011111110 <
b10111110111011111100101011111110 F
1=
b10111110111011111100101011111110 &"
05
#1570
b10111110111011111100101011111110 "
b10111110111011111100101011111110 J
b10111110111011111100101011111110 b
b10111110111011111100101011111110 $
b10111110111011111100101011111110 I
b10111110111011111100101011111110 j
b10111110111011111100101011111110 ^
b1000100000 *
b1000100000 H
b1000100000 h
b1000100000 \
1#
1_
b0 e
15
#1575
1;
bx <
bx F
b0 $"
b1 %"
0=
05
#1580
0'
0p
1|
0#
0_
b0 `
15
