cache.vcd
$date
	Mon Dec  1 16:31:57 2025
$end
$version
	Icarus Verilog
$end
$timescale
	1s
$end
$scope module cache_tb $end
$var wire 1 ! busy $end
$var wire 32 " mem_addr [31:0] $end
$var wire 4 # mem_mask [3:0] $end
$var wire 1 $ mem_ren $end
$var wire 32 % mem_wdata [31:0] $end
$var wire 1 & mem_wen $end
$var wire 32 ' res_rdata [31:0] $end
$var wire 1 ( mem_valid $end
$var wire 1 ) mem_ready $end
$var wire 32 * mem_rdata [31:0] $end
$var wire 32 + mem_oaddr [31:0] $end
$var parameter 32 , D $end
$var parameter 32 - DEPTH $end
$var parameter 32 . INTERVAL $end
$var parameter 32 / LATENCY $end
$var parameter 32 0 O $end
$var parameter 32 1 S $end
$var parameter 64 2 SIZE $end
$var parameter 34 3 T $end
$var parameter 32 4 W $end
$var reg 1 5 clk $end
$var reg 32 6 expanded_mask [31:0] $end
$var reg 5 7 index [4:0] $end
$var reg 4 8 offset [3:0] $end
$var reg 32 9 req_addr [31:0] $end
$var reg 4 : req_mask [3:0] $end
$var reg 1 ; req_ren $end
$var reg 32 < req_wdata [31:0] $end
$var reg 1 = req_wen $end
$var reg 1 > rst $end
$var reg 24 ? tag [23:0] $end
$var integer 32 @ i [31:0] $end
$scope module dut $end
$var wire 1 5 i_clk $end
$var wire 32 A i_req_addr [31:0] $end
$var wire 4 B i_req_mask [3:0] $end
$var wire 1 ; i_req_ren $end
$var wire 32 C i_req_wdata [31:0] $end
$var wire 1 = i_req_wen $end
$var wire 1 > i_rst $end
$var wire 1 ! o_busy $end
$var wire 32 D o_mem_addr [31:0] $end
$var wire 1 $ o_mem_ren $end
$var wire 32 E o_mem_wdata [31:0] $end
$var wire 1 & o_mem_wen $end
$var wire 32 F o_res_rdata [31:0] $end
$var wire 1 ( i_mem_valid $end
$var wire 1 ) i_mem_ready $end
$var wire 32 G i_mem_rdata [31:0] $end
$var parameter 32 H D $end
$var parameter 32 I DEPTH $end
$var parameter 32 J O $end
$var parameter 32 K S $end
$var parameter 34 L T $end
$var parameter 32 M W $end
$upscope $end
$scope module mem $end
$var wire 32 N i_addr [31:0] $end
$var wire 1 5 i_clk $end
$var wire 4 O i_mask [3:0] $end
$var wire 1 $ i_ren $end
$var wire 1 > i_rst $end
$var wire 32 P i_wdata [31:0] $end
$var wire 1 & i_wen $end
$var wire 4 Q mask [3:0] $end
$var wire 32 R o_addr [31:0] $end
$var wire 32 S o_rdata [31:0] $end
$var wire 1 ) o_ready $end
$var wire 1 ( o_valid $end
$var wire 1 T o_wdone $end
$var wire 32 U raddr [31:0] $end
$var wire 1 V ready $end
$var wire 1 W ren $end
$var wire 32 X res_addr [31:0] $end
$var wire 1 Y res_valid $end
$var wire 1 Z res_wdone $end
$var wire 32 [ waddr [31:0] $end
$var wire 32 \ wdata [31:0] $end
$var wire 1 ] wen $end
$var wire 32 ^ res_rdata [31:0] $end
$var parameter 32 _ INTERVAL $end
$var parameter 32 ` LATENCY $end
$var parameter 64 a SIZE $end
$var reg 1 b interval_counter $end
$scope begin genblk1[1] $end
$var parameter 2 c i $end
$upscope $end
$scope begin genblk1[2] $end
$var parameter 3 d i $end
$upscope $end
$scope begin genblk1[3] $end
$var parameter 3 e i $end
$upscope $end
$upscope $end
$scope task reset_sequence $end
$upscope $end
$scope task send_read $end
$var reg 5 f index [4:0] $end
$var reg 4 g mask [3:0] $end
$var reg 4 h offset [3:0] $end
$var reg 23 i tag [22:0] $end
$upscope $end
$scope task send_write $end
$var reg 32 j data [31:0] $end
$var reg 5 k index [4:0] $end
$var reg 4 l mask [3:0] $end
$var reg 4 m offset [3:0] $end
$var reg 23 n tag [22:0] $end
$upscope $end
$upscope $end
$enddefinitions $end
$comment Show the parameter values. $end
$dumpall
b11 e
b10 d
b1 c
b100000000000000 a
b100 `
b10 _
b10 M
b10111 L
b101 K
b100 J
b100000 I
b100 H
b10 4
b10111 3
b100000000000000 2
b101 1
b100 0
b100 /
b10 .
b100000 -
b100 ,
$end
#0
$dumpvars
bx n
bx m
bx l
bx k
bx j
bx i
bx h
bx g
bx f
xb
bx ^
x]
bx \
bx [
xZ
xY
bx X
xW
xV
bx U
xT
bx S
bx R
bx Q
bz P
b1111 O
bz N
bx G
bz F
bz E
bz D
bx C
bx B
bx A
bx @
bx ?
0>
x=
bx <
x;
bx :
bx 9
bx 8
bx 7
bx 6
15
bx +
bx *
x)
x(
bz '
z&
bz %
z$
b1111 #
bz "
z!
$end
#5
0)
0V
1>
05
#10
0b
0(
0Y
0W
0T
0Z
0]
15
#15
05
#20
15
#25
05
#30
15
#35
05
#40
15
#45
1)
1V
b1111 g
b0 h
b0 f
b0 i
b0 @
b0 8
b0 7
b0 ?
bx <
bx C
b1111 :
b1111 B
0=
1;
b0 9
b0 A
0>
05
#50
15
#55
b11111111111111111111111111111111 6
1;
05
#60
bz \
b1111 Q
bz [
15
#65
b11 :
b11 B
b11 g
1;
05
#70
bz +
bz R
bz X
bz U
xT
xZ
x]
15
#75
b1111 :
b1111 B
b1010 9
b1010 A
b1111 g
b1010 h
b1010 8
b1111111111111111 6
1;
05
#80
x(
xY
xW
15
#85
b11011110101011011011111011101111 <
b11011110101011011011111011101111 C
1=
b1000000000 9
b1000000000 A
b11011110101011011011111011101111 j
b1111 l
b0 m
b0 k
b1 n
b0 8
b1 ?
b11111111111111111111111111111111 6
0;
05
#90
15
#95
b10111110111011111100101011111110 <
b10111110111011111100101011111110 C
b10111110111011111100101011111110 j
1=
05
#100
15
#105
1;
bx <
bx C
b0 h
b1 i
0=
05
#110
15
#115
b11001010111111101011111011101111 <
b11001010111111101011111011101111 C
1=
b10000000000 9
b10000000000 A
b11001010111111101011111011101111 j
b10 n
b10 ?
0;
05
#120
15
#125
b10111110111011110000000000000000 <
b10111110111011110000000000000000 C
b1100 :
b1100 B
b1000000000 9
b1000000000 A
b10111110111011110000000000000000 j
b1100 l
b1 n
b1 ?
1=
05
#130
15
#135
1;
bx <
bx C
b1111 :
b1111 B
0=
05
#140
15
#145
b1100101011111110 <
b1100101011111110 C
1=
b11 :
b11 B
b1100101011111110 j
b11 l
0;
05
#150
15
#155
1;
bx <
bx C
b1111 :
b1111 B
0=
05
#160
15
#165
b10000 9
b10000 A
b1 f
b0 i
b1 7
b0 ?
b1 @
1;
05
#170
15
#175
1;
05
#180
15
#185
b11 :
b11 B
b11 g
1;
05
#190
15
#195
b1111 :
b1111 B
b11010 9
b11010 A
b1111 g
b1010 h
b1010 8
b1111111111111111 6
1;
05
#200
15
#205
b11011110101011011011111011101111 <
b11011110101011011011111011101111 C
1=
b1000010000 9
b1000010000 A
b11011110101011011011111011101111 j
b1111 l
b1 k
b0 8
b1 ?
b11111111111111111111111111111111 6
0;
05
#210
15
#215
b10111110111011111100101011111110 <
b10111110111011111100101011111110 C
b10111110111011111100101011111110 j
1=
05
#220
15
#225
1;
bx <
bx C
b0 h
b1 i
0=
05
#230
15
#235
b11001010111111101011111011101111 <
b11001010111111101011111011101111 C
1=
b10000010000 9
b10000010000 A
b11001010111111101011111011101111 j
b10 n
b10 ?
0;
05
#240
15
#245
b10111110111011110000000000000000 <
b10111110111011110000000000000000 C
b1100 :
b1100 B
b1000010000 9
b1000010000 A
b10111110111011110000000000000000 j
b1100 l
b1 n
b1 ?
1=
05
#250
15
#255
1;
bx <
bx C
b1111 :
b1111 B
0=
05
#260
15
#265
b1100101011111110 <
b1100101011111110 C
1=
b11 :
b11 B
b1100101011111110 j
b11 l
0;
05
#270
15
#275
1;
bx <
bx C
b1111 :
b1111 B
0=
05
#280
15
#285
b100000 9
b100000 A
b10 f
b0 i
b10 7
b0 ?
b10 @
1;
05
#290
15
#295
1;
05
#300
15
#305
b11 :
b11 B
b11 g
1;
05
#310
15
#315
b1111 :
b1111 B
b101010 9
b101010 A
b1111 g
b1010 h
b1010 8
b1111111111111111 6
1;
05
#320
15
#325
b11011110101011011011111011101111 <
b11011110101011011011111011101111 C
1=
b1000100000 9
b1000100000 A
b11011110101011011011111011101111 j
b1111 l
b10 k
b0 8
b1 ?
b11111111111111111111111111111111 6
0;
05
#330
15
#335
b10111110111011111100101011111110 <
b10111110111011111100101011111110 C
b10111110111011111100101011111110 j
1=
05
#340
15
#345
1;
bx <
bx C
b0 h
b1 i
0=
05
#350
15
#355
b11001010111111101011111011101111 <
b11001010111111101011111011101111 C
1=
b10000100000 9
b10000100000 A
b11001010111111101011111011101111 j
b10 n
b10 ?
0;
05
#360
15
#365
b10111110111011110000000000000000 <
b10111110111011110000000000000000 C
b1100 :
b1100 B
b1000100000 9
b1000100000 A
b10111110111011110000000000000000 j
b1100 l
b1 n
b1 ?
1=
05
#370
15
#375
1;
bx <
bx C
b1111 :
b1111 B
0=
05
#380
15
#385
b1100101011111110 <
b1100101011111110 C
1=
b11 :
b11 B
b1100101011111110 j
b11 l
0;
05
#390
15
#395
1;
bx <
bx C
b1111 :
b1111 B
0=
05
#400
15
#405
b110000 9
b110000 A
b11 f
b0 i
b11 7
b0 ?
b11 @
1;
05
#410
15
#415
1;
05
#420
15
#425
b11 :
b11 B
b11 g
1;
05
#430
15
#435
b1111 :
b1111 B
b111010 9
b111010 A
b1111 g
b1010 h
b1010 8
b1111111111111111 6
1;
05
#440
15
#445
b11011110101011011011111011101111 <
b11011110101011011011111011101111 C
1=
b1000110000 9
b1000110000 A
b11011110101011011011111011101111 j
b1111 l
b11 k
b0 8
b1 ?
b11111111111111111111111111111111 6
0;
05
#450
15
#455
b10111110111011111100101011111110 <
b10111110111011111100101011111110 C
b10111110111011111100101011111110 j
1=
05
#460
15
#465
1;
bx <
bx C
b0 h
b1 i
0=
05
#470
15
#475
b11001010111111101011111011101111 <
b11001010111111101011111011101111 C
1=
b10000110000 9
b10000110000 A
b11001010111111101011111011101111 j
b10 n
b10 ?
0;
05
#480
15
#485
b10111110111011110000000000000000 <
b10111110111011110000000000000000 C
b1100 :
b1100 B
b1000110000 9
b1000110000 A
b10111110111011110000000000000000 j
b1100 l
b1 n
b1 ?
1=
05
#490
15
#495
1;
bx <
bx C
b1111 :
b1111 B
0=
05
#500
15
#505
b1100101011111110 <
b1100101011111110 C
1=
b11 :
b11 B
b1100101011111110 j
b11 l
0;
05
#510
15
#515
1;
bx <
bx C
b1111 :
b1111 B
0=
05
#520
15
#525
b1000000 9
b1000000 A
b100 f
b0 i
b100 7
b0 ?
b100 @
1;
05
#530
15
#535
1;
05
#540
15
#545
b11 :
b11 B
b11 g
1;
05
#550
15
#555
b1111 :
b1111 B
b1001010 9
b1001010 A
b1111 g
b1010 h
b1010 8
b1111111111111111 6
1;
05
#560
15
#565
b11011110101011011011111011101111 <
b11011110101011011011111011101111 C
1=
b1001000000 9
b1001000000 A
b11011110101011011011111011101111 j
b1111 l
b100 k
b0 8
b1 ?
b11111111111111111111111111111111 6
0;
05
#570
15
#575
b10111110111011111100101011111110 <
b10111110111011111100101011111110 C
b10111110111011111100101011111110 j
1=
05
#580
15
#585
1;
bx <
bx C
b0 h
b1 i
0=
05
#590
15
#595
b11001010111111101011111011101111 <
b11001010111111101011111011101111 C
1=
b10001000000 9
b10001000000 A
b11001010111111101011111011101111 j
b10 n
b10 ?
0;
05
#600
15
#605
b10111110111011110000000000000000 <
b10111110111011110000000000000000 C
b1100 :
b1100 B
b1001000000 9
b1001000000 A
b10111110111011110000000000000000 j
b1100 l
b1 n
b1 ?
1=
05
#610
15
#615
1;
bx <
bx C
b1111 :
b1111 B
0=
05
#620
15
#625
b1100101011111110 <
b1100101011111110 C
1=
b11 :
b11 B
b1100101011111110 j
b11 l
0;
05
#630
15
#635
1;
bx <
bx C
b1111 :
b1111 B
0=
05
#640
15
#645
b1010000 9
b1010000 A
b101 f
b0 i
b101 7
b0 ?
b101 @
1;
05
#650
15
#655
1;
05
#660
15
#665
b11 :
b11 B
b11 g
1;
05
#670
15
#675
b1111 :
b1111 B
b1011010 9
b1011010 A
b1111 g
b1010 h
b1010 8
b1111111111111111 6
1;
05
#680
15
#685
b11011110101011011011111011101111 <
b11011110101011011011111011101111 C
1=
b1001010000 9
b1001010000 A
b11011110101011011011111011101111 j
b1111 l
b101 k
b0 8
b1 ?
b11111111111111111111111111111111 6
0;
05
#690
15
#695
b10111110111011111100101011111110 <
b10111110111011111100101011111110 C
b10111110111011111100101011111110 j
1=
05
#700
15
#705
1;
bx <
bx C
b0 h
b1 i
0=
05
#710
15
#715
b11001010111111101011111011101111 <
b11001010111111101011111011101111 C
1=
b10001010000 9
b10001010000 A
b11001010111111101011111011101111 j
b10 n
b10 ?
0;
05
#720
15
#725
b10111110111011110000000000000000 <
b10111110111011110000000000000000 C
b1100 :
b1100 B
b1001010000 9
b1001010000 A
b10111110111011110000000000000000 j
b1100 l
b1 n
b1 ?
1=
05
#730
15
#735
1;
bx <
bx C
b1111 :
b1111 B
0=
05
#740
15
#745
b1100101011111110 <
b1100101011111110 C
1=
b11 :
b11 B
b1100101011111110 j
b11 l
0;
05
#750
15
#755
1;
bx <
bx C
b1111 :
b1111 B
0=
05
#760
15
#765
b1100000 9
b1100000 A
b110 f
b0 i
b110 7
b0 ?
b110 @
1;
05
#770
15
#775
1;
05
#780
15
#785
b11 :
b11 B
b11 g
1;
05
#790
15
#795
b1111 :
b1111 B
b1101010 9
b1101010 A
b1111 g
b1010 h
b1010 8
b1111111111111111 6
1;
05
#800
15
#805
b11011110101011011011111011101111 <
b11011110101011011011111011101111 C
1=
b1001100000 9
b1001100000 A
b11011110101011011011111011101111 j
b1111 l
b110 k
b0 8
b1 ?
b11111111111111111111111111111111 6
0;
05
#810
15
#815
b10111110111011111100101011111110 <
b10111110111011111100101011111110 C
b10111110111011111100101011111110 j
1=
05
#820
15
#825
1;
bx <
bx C
b0 h
b1 i
0=
05
#830
15
#835
b11001010111111101011111011101111 <
b11001010111111101011111011101111 C
1=
b10001100000 9
b10001100000 A
b11001010111111101011111011101111 j
b10 n
b10 ?
0;
05
#840
15
#845
b10111110111011110000000000000000 <
b10111110111011110000000000000000 C
b1100 :
b1100 B
b1001100000 9
b1001100000 A
b10111110111011110000000000000000 j
b1100 l
b1 n
b1 ?
1=
05
#850
15
#855
1;
bx <
bx C
b1111 :
b1111 B
0=
05
#860
15
#865
b1100101011111110 <
b1100101011111110 C
1=
b11 :
b11 B
b1100101011111110 j
b11 l
0;
05
#870
15
#875
1;
bx <
bx C
b1111 :
b1111 B
0=
05
#880
15
#885
b1110000 9
b1110000 A
b111 f
b0 i
b111 7
b0 ?
b111 @
1;
05
#890
15
#895
1;
05
#900
15
#905
b11 :
b11 B
b11 g
1;
05
#910
15
#915
b1111 :
b1111 B
b1111010 9
b1111010 A
b1111 g
b1010 h
b1010 8
b1111111111111111 6
1;
05
#920
15
#925
b11011110101011011011111011101111 <
b11011110101011011011111011101111 C
1=
b1001110000 9
b1001110000 A
b11011110101011011011111011101111 j
b1111 l
b111 k
b0 8
b1 ?
b11111111111111111111111111111111 6
0;
05
#930
15
#935
b10111110111011111100101011111110 <
b10111110111011111100101011111110 C
b10111110111011111100101011111110 j
1=
05
#940
15
#945
1;
bx <
bx C
b0 h
b1 i
0=
05
#950
15
#955
b11001010111111101011111011101111 <
b11001010111111101011111011101111 C
1=
b10001110000 9
b10001110000 A
b11001010111111101011111011101111 j
b10 n
b10 ?
0;
05
#960
15
#965
b10111110111011110000000000000000 <
b10111110111011110000000000000000 C
b1100 :
b1100 B
b1001110000 9
b1001110000 A
b10111110111011110000000000000000 j
b1100 l
b1 n
b1 ?
1=
05
#970
15
#975
1;
bx <
bx C
b1111 :
b1111 B
0=
05
#980
15
#985
b1100101011111110 <
b1100101011111110 C
1=
b11 :
b11 B
b1100101011111110 j
b11 l
0;
05
#990
15
#995
1;
bx <
bx C
b1111 :
b1111 B
0=
05
#1000
15
#1005
b10000000 9
b10000000 A
b1000 f
b0 i
b1000 7
b0 ?
b1000 @
1;
05
#1010
15
#1015
1;
05
#1020
15
#1025
b11 :
b11 B
b11 g
1;
05
#1030
15
#1035
b1111 :
b1111 B
b10001010 9
b10001010 A
b1111 g
b1010 h
b1010 8
b1111111111111111 6
1;
05
#1040
15
#1045
b11011110101011011011111011101111 <
b11011110101011011011111011101111 C
1=
b1010000000 9
b1010000000 A
b11011110101011011011111011101111 j
b1111 l
b1000 k
b0 8
b1 ?
b11111111111111111111111111111111 6
0;
05
#1050
15
#1055
b10111110111011111100101011111110 <
b10111110111011111100101011111110 C
b10111110111011111100101011111110 j
1=
05
#1060
15
#1065
1;
bx <
bx C
b0 h
b1 i
0=
05
#1070
15
#1075
b11001010111111101011111011101111 <
b11001010111111101011111011101111 C
1=
b10010000000 9
b10010000000 A
b11001010111111101011111011101111 j
b10 n
b10 ?
0;
05
#1080
15
#1085
b10111110111011110000000000000000 <
b10111110111011110000000000000000 C
b1100 :
b1100 B
b1010000000 9
b1010000000 A
b10111110111011110000000000000000 j
b1100 l
b1 n
b1 ?
1=
05
#1090
15
#1095
1;
bx <
bx C
b1111 :
b1111 B
0=
05
#1100
15
#1105
b1100101011111110 <
b1100101011111110 C
1=
b11 :
b11 B
b1100101011111110 j
b11 l
0;
05
#1110
15
#1115
1;
bx <
bx C
b1111 :
b1111 B
0=
05
#1120
15
#1125
b10010000 9
b10010000 A
b1001 f
b0 i
b1001 7
b0 ?
b1001 @
1;
05
#1130
15
#1135
1;
05
#1140
15
#1145
b11 :
b11 B
b11 g
1;
05
#1150
15
#1155
b1111 :
b1111 B
b10011010 9
b10011010 A
b1111 g
b1010 h
b1010 8
b1111111111111111 6
1;
05
#1160
15
#1165
b11011110101011011011111011101111 <
b11011110101011011011111011101111 C
1=
b1010010000 9
b1010010000 A
b11011110101011011011111011101111 j
b1111 l
b1001 k
b0 8
b1 ?
b11111111111111111111111111111111 6
0;
05
#1170
15
#1175
b10111110111011111100101011111110 <
b10111110111011111100101011111110 C
b10111110111011111100101011111110 j
1=
05
#1180
15
#1185
1;
bx <
bx C
b0 h
b1 i
0=
05
#1190
15
#1195
b11001010111111101011111011101111 <
b11001010111111101011111011101111 C
1=
b10010010000 9
b10010010000 A
b11001010111111101011111011101111 j
b10 n
b10 ?
0;
05
#1200
15
#1205
b10111110111011110000000000000000 <
b10111110111011110000000000000000 C
b1100 :
b1100 B
b1010010000 9
b1010010000 A
b10111110111011110000000000000000 j
b1100 l
b1 n
b1 ?
1=
05
#1210
15
#1215
1;
bx <
bx C
b1111 :
b1111 B
0=
05
#1220
15
#1225
b1100101011111110 <
b1100101011111110 C
1=
b11 :
b11 B
b1100101011111110 j
b11 l
0;
05
#1230
15
#1235
1;
bx <
bx C
b1111 :
b1111 B
0=
05
#1240
15
#1245
b10100000 9
b10100000 A
b1010 f
b0 i
b1010 7
b0 ?
b1010 @
1;
05
#1250
15
#1255
1;
05
#1260
15
#1265
b11 :
b11 B
b11 g
1;
05
#1270
15
#1275
b1111 :
b1111 B
b10101010 9
b10101010 A
b1111 g
b1010 h
b1010 8
b1111111111111111 6
1;
05
#1280
15
#1285
b11011110101011011011111011101111 <
b11011110101011011011111011101111 C
1=
b1010100000 9
b1010100000 A
b11011110101011011011111011101111 j
b1111 l
b1010 k
b0 8
b1 ?
b11111111111111111111111111111111 6
0;
05
#1290
15
#1295
b10111110111011111100101011111110 <
b10111110111011111100101011111110 C
b10111110111011111100101011111110 j
1=
05
#1300
15
#1305
1;
bx <
bx C
b0 h
b1 i
0=
05
#1310
15
#1315
b11001010111111101011111011101111 <
b11001010111111101011111011101111 C
1=
b10010100000 9
b10010100000 A
b11001010111111101011111011101111 j
b10 n
b10 ?
0;
05
#1320
15
#1325
b10111110111011110000000000000000 <
b10111110111011110000000000000000 C
b1100 :
b1100 B
b1010100000 9
b1010100000 A
b10111110111011110000000000000000 j
b1100 l
b1 n
b1 ?
1=
05
#1330
15
#1335
1;
bx <
bx C
b1111 :
b1111 B
0=
05
#1340
15
#1345
b1100101011111110 <
b1100101011111110 C
1=
b11 :
b11 B
b1100101011111110 j
b11 l
0;
05
#1350
15
#1355
1;
bx <
bx C
b1111 :
b1111 B
0=
05
#1360
15
#1365
b10110000 9
b10110000 A
b1011 f
b0 i
b1011 7
b0 ?
b1011 @
1;
05
#1370
15
#1375
1;
05
#1380
15
#1385
b11 :
b11 B
b11 g
1;
05
#1390
15
#1395
b1111 :
b1111 B
b10111010 9
b10111010 A
b1111 g
b1010 h
b1010 8
b1111111111111111 6
1;
05
#1400
15
#1405
b11011110101011011011111011101111 <
b11011110101011011011111011101111 C
1=
b1010110000 9
b1010110000 A
b11011110101011011011111011101111 j
b1111 l
b1011 k
b0 8
b1 ?
b11111111111111111111111111111111 6
0;
05
#1410
15
#1415
b10111110111011111100101011111110 <
b10111110111011111100101011111110 C
b10111110111011111100101011111110 j
1=
05
#1420
15
#1425
1;
bx <
bx C
b0 h
b1 i
0=
05
#1430
15
#1435
b11001010111111101011111011101111 <
b11001010111111101011111011101111 C
1=
b10010110000 9
b10010110000 A
b11001010111111101011111011101111 j
b10 n
b10 ?
0;
05
#1440
15
#1445
b10111110111011110000000000000000 <
b10111110111011110000000000000000 C
b1100 :
b1100 B
b1010110000 9
b1010110000 A
b10111110111011110000000000000000 j
b1100 l
b1 n
b1 ?
1=
05
#1450
15
#1455
1;
bx <
bx C
b1111 :
b1111 B
0=
05
#1460
15
#1465
b1100101011111110 <
b1100101011111110 C
1=
b11 :
b11 B
b1100101011111110 j
b11 l
0;
05
#1470
15
#1475
1;
bx <
bx C
b1111 :
b1111 B
0=
05
#1480
15
#1485
b11000000 9
b11000000 A
b1100 f
b0 i
b1100 7
b0 ?
b1100 @
1;
05
#1490
15
#1495
1;
05
#1500
15
#1505
b11 :
b11 B
b11 g
1;
05
#1510
15
#1515
b1111 :
b1111 B
b11001010 9
b11001010 A
b1111 g
b1010 h
b1010 8
b1111111111111111 6
1;
05
#1520
15
#1525
b11011110101011011011111011101111 <
b11011110101011011011111011101111 C
1=
b1011000000 9
b1011000000 A
b11011110101011011011111011101111 j
b1111 l
b1100 k
b0 8
b1 ?
b11111111111111111111111111111111 6
0;
05
#1530
15
#1535
b10111110111011111100101011111110 <
b10111110111011111100101011111110 C
b10111110111011111100101011111110 j
1=
05
#1540
15
#1545
1;
bx <
bx C
b0 h
b1 i
0=
05
#1550
15
#1555
b11001010111111101011111011101111 <
b11001010111111101011111011101111 C
1=
b10011000000 9
b10011000000 A
b11001010111111101011111011101111 j
b10 n
b10 ?
0;
05
#1560
15
#1565
b10111110111011110000000000000000 <
b10111110111011110000000000000000 C
b1100 :
b1100 B
b1011000000 9
b1011000000 A
b10111110111011110000000000000000 j
b1100 l
b1 n
b1 ?
1=
05
#1570
15
#1575
1;
bx <
bx C
b1111 :
b1111 B
0=
05
#1580
15
#1585
b1100101011111110 <
b1100101011111110 C
1=
b11 :
b11 B
b1100101011111110 j
b11 l
0;
05
#1590
15
#1595
1;
bx <
bx C
b1111 :
b1111 B
0=
05
#1600
15
#1605
b11010000 9
b11010000 A
b1101 f
b0 i
b1101 7
b0 ?
b1101 @
1;
05
#1610
15
#1615
1;
05
#1620
15
#1625
b11 :
b11 B
b11 g
1;
05
#1630
15
#1635
b1111 :
b1111 B
b11011010 9
b11011010 A
b1111 g
b1010 h
b1010 8
b1111111111111111 6
1;
05
#1640
15
#1645
b11011110101011011011111011101111 <
b11011110101011011011111011101111 C
1=
b1011010000 9
b1011010000 A
b11011110101011011011111011101111 j
b1111 l
b1101 k
b0 8
b1 ?
b11111111111111111111111111111111 6
0;
05
#1650
15
#1655
b10111110111011111100101011111110 <
b10111110111011111100101011111110 C
b10111110111011111100101011111110 j
1=
05
#1660
15
#1665
1;
bx <
bx C
b0 h
b1 i
0=
05
#1670
15
#1675
b11001010111111101011111011101111 <
b11001010111111101011111011101111 C
1=
b10011010000 9
b10011010000 A
b11001010111111101011111011101111 j
b10 n
b10 ?
0;
05
#1680
15
#1685
b10111110111011110000000000000000 <
b10111110111011110000000000000000 C
b1100 :
b1100 B
b1011010000 9
b1011010000 A
b10111110111011110000000000000000 j
b1100 l
b1 n
b1 ?
1=
05
#1690
15
#1695
1;
bx <
bx C
b1111 :
b1111 B
0=
05
#1700
15
#1705
b1100101011111110 <
b1100101011111110 C
1=
b11 :
b11 B
b1100101011111110 j
b11 l
0;
05
#1710
15
#1715
1;
bx <
bx C
b1111 :
b1111 B
0=
05
#1720
15
#1725
b11100000 9
b11100000 A
b1110 f
b0 i
b1110 7
b0 ?
b1110 @
1;
05
#1730
15
#1735
1;
05
#1740
15
#1745
b11 :
b11 B
b11 g
1;
05
#1750
15
#1755
b1111 :
b1111 B
b11101010 9
b11101010 A
b1111 g
b1010 h
b1010 8
b1111111111111111 6
1;
05
#1760
15
#1765
b11011110101011011011111011101111 <
b11011110101011011011111011101111 C
1=
b1011100000 9
b1011100000 A
b11011110101011011011111011101111 j
b1111 l
b1110 k
b0 8
b1 ?
b11111111111111111111111111111111 6
0;
05
#1770
15
#1775
b10111110111011111100101011111110 <
b10111110111011111100101011111110 C
b10111110111011111100101011111110 j
1=
05
#1780
15
#1785
1;
bx <
bx C
b0 h
b1 i
0=
05
#1790
15
#1795
b11001010111111101011111011101111 <
b11001010111111101011111011101111 C
1=
b10011100000 9
b10011100000 A
b11001010111111101011111011101111 j
b10 n
b10 ?
0;
05
#1800
15
#1805
b10111110111011110000000000000000 <
b10111110111011110000000000000000 C
b1100 :
b1100 B
b1011100000 9
b1011100000 A
b10111110111011110000000000000000 j
b1100 l
b1 n
b1 ?
1=
05
#1810
15
#1815
1;
bx <
bx C
b1111 :
b1111 B
0=
05
#1820
15
#1825
b1100101011111110 <
b1100101011111110 C
1=
b11 :
b11 B
b1100101011111110 j
b11 l
0;
05
#1830
15
#1835
1;
bx <
bx C
b1111 :
b1111 B
0=
05
#1840
15
#1845
b11110000 9
b11110000 A
b1111 f
b0 i
b1111 7
b0 ?
b1111 @
1;
05
#1850
15
#1855
1;
05
#1860
15
#1865
b11 :
b11 B
b11 g
1;
05
#1870
15
#1875
b1111 :
b1111 B
b11111010 9
b11111010 A
b1111 g
b1010 h
b1010 8
b1111111111111111 6
1;
05
#1880
15
#1885
b11011110101011011011111011101111 <
b11011110101011011011111011101111 C
1=
b1011110000 9
b1011110000 A
b11011110101011011011111011101111 j
b1111 l
b1111 k
b0 8
b1 ?
b11111111111111111111111111111111 6
0;
05
#1890
15
#1895
b10111110111011111100101011111110 <
b10111110111011111100101011111110 C
b10111110111011111100101011111110 j
1=
05
#1900
15
#1905
1;
bx <
bx C
b0 h
b1 i
0=
05
#1910
15
#1915
b11001010111111101011111011101111 <
b11001010111111101011111011101111 C
1=
b10011110000 9
b10011110000 A
b11001010111111101011111011101111 j
b10 n
b10 ?
0;
05
#1920
15
#1925
b10111110111011110000000000000000 <
b10111110111011110000000000000000 C
b1100 :
b1100 B
b1011110000 9
b1011110000 A
b10111110111011110000000000000000 j
b1100 l
b1 n
b1 ?
1=
05
#1930
15
#1935
1;
bx <
bx C
b1111 :
b1111 B
0=
05
#1940
15
#1945
b1100101011111110 <
b1100101011111110 C
1=
b11 :
b11 B
b1100101011111110 j
b11 l
0;
05
#1950
15
#1955
1;
bx <
bx C
b1111 :
b1111 B
0=
05
#1960
15
#1965
b100000000 9
b100000000 A
b10000 f
b0 i
b10000 7
b0 ?
b10000 @
1;
05
#1970
15
#1975
1;
05
#1980
15
#1985
b11 :
b11 B
b11 g
1;
05
#1990
15
#1995
b1111 :
b1111 B
b100001010 9
b100001010 A
b1111 g
b1010 h
b1010 8
b1111111111111111 6
1;
05
#2000
15
#2005
b11011110101011011011111011101111 <
b11011110101011011011111011101111 C
1=
b1100000000 9
b1100000000 A
b11011110101011011011111011101111 j
b1111 l
b10000 k
b0 8
b1 ?
b11111111111111111111111111111111 6
0;
05
#2010
15
#2015
b10111110111011111100101011111110 <
b10111110111011111100101011111110 C
b10111110111011111100101011111110 j
1=
05
#2020
15
#2025
1;
bx <
bx C
b0 h
b1 i
0=
05
#2030
15
#2035
b11001010111111101011111011101111 <
b11001010111111101011111011101111 C
1=
b10100000000 9
b10100000000 A
b11001010111111101011111011101111 j
b10 n
b10 ?
0;
05
#2040
15
#2045
b10111110111011110000000000000000 <
b10111110111011110000000000000000 C
b1100 :
b1100 B
b1100000000 9
b1100000000 A
b10111110111011110000000000000000 j
b1100 l
b1 n
b1 ?
1=
05
#2050
15
#2055
1;
bx <
bx C
b1111 :
b1111 B
0=
05
#2060
15
#2065
b1100101011111110 <
b1100101011111110 C
1=
b11 :
b11 B
b1100101011111110 j
b11 l
0;
05
#2070
15
#2075
1;
bx <
bx C
b1111 :
b1111 B
0=
05
#2080
15
#2085
b100010000 9
b100010000 A
b10001 f
b0 i
b10001 7
b0 ?
b10001 @
1;
05
#2090
15
#2095
1;
05
#2100
15
#2105
b11 :
b11 B
b11 g
1;
05
#2110
15
#2115
b1111 :
b1111 B
b100011010 9
b100011010 A
b1111 g
b1010 h
b1010 8
b1111111111111111 6
1;
05
#2120
15
#2125
b11011110101011011011111011101111 <
b11011110101011011011111011101111 C
1=
b1100010000 9
b1100010000 A
b11011110101011011011111011101111 j
b1111 l
b10001 k
b0 8
b1 ?
b11111111111111111111111111111111 6
0;
05
#2130
15
#2135
b10111110111011111100101011111110 <
b10111110111011111100101011111110 C
b10111110111011111100101011111110 j
1=
05
#2140
15
#2145
1;
bx <
bx C
b0 h
b1 i
0=
05
#2150
15
#2155
b11001010111111101011111011101111 <
b11001010111111101011111011101111 C
1=
b10100010000 9
b10100010000 A
b11001010111111101011111011101111 j
b10 n
b10 ?
0;
05
#2160
15
